langcode,type,status,title,uid,created,changed,default_langcode,moderation_state,path,field_cargo,field_email,field_foto_carnet,field_rut,field_telefono
"es","especialista","1","Juan Panay ","14","1532569069","1532569230","1","","es","Presidente Asociación chilena de Naturópatas","jpanay@naturopatiachile.cl","23","7.691.137-1","+56982710863"
"es","especialista","1","Daniel Fuentes ","14","1532569247","1532569449","1","","es","Natúropata Asociado ","dfuentes@naturopatiachile.cl","25","17.266.367-2","+56961597087"
"es","especialista","1","Charles Varga ","14","1532569457","1532569594","1","","es","Naturópata Asociado ","cvargas@naturopatiachile.cl","26","16.082.326-7","+56967879167"
"es","especialista","1","Mayerlin Panay","14","1532569603","1532569742","1","","es","Naturópata Asociada","mpanay@naturopatiachile.cl","28","14.192.667-5","+56 9 6162 1722"
"es","especialista","1","Miguel Caro ","14","1532569765","1532570045","1","","es","Naturópata Asociado ","mcaro@naturopatiachile.cl","29","16.903.387-0","+56991580423"
"es","especialista","1","Gladys Muñoz ","14","1532570066","1532570160","1","","es","Naturópata Asociada","gmunoz@naturopatiachile.cl","30","11.189.791-3","+56 9 8514 2374"
"es","especialista","1","María Fuentes ","14","1532570180","1532570269","1","","es","Naturópata Asociada ","mfuentes@naturopatiachile.cl","31","10.528.471-3","+56982046650"
